<?xml version="1.0" encoding="UTF-8"?>
<glyph name="adieresis" format="1">
  <advance width="495"/>
  <unicode hex="00E4"/>
  <outline>
    <contour>
      <point x="243" y="636" type="curve" smooth="yes"/>
      <point x="243" y="616"/>
      <point x="224" y="600"/>
      <point x="200" y="600" type="curve" smooth="yes"/>
      <point x="181" y="600"/>
      <point x="164" y="613"/>
      <point x="164" y="630" type="curve" smooth="yes"/>
      <point x="164" y="649"/>
      <point x="183" y="666"/>
      <point x="207" y="666" type="curve" smooth="yes"/>
      <point x="225" y="666"/>
      <point x="243" y="652"/>
    </contour>
    <contour>
      <point x="409" y="636" type="curve" smooth="yes"/>
      <point x="409" y="616"/>
      <point x="390" y="600"/>
      <point x="366" y="600" type="curve" smooth="yes"/>
      <point x="346" y="600"/>
      <point x="330" y="613"/>
      <point x="330" y="630" type="curve" smooth="yes"/>
      <point x="330" y="649"/>
      <point x="348" y="666"/>
      <point x="372" y="666" type="curve" smooth="yes"/>
      <point x="391" y="666"/>
      <point x="409" y="652"/>
    </contour>
    <contour>
      <point x="438" y="476" type="curve"/>
      <point x="438" y="21" type="line" smooth="yes"/>
      <point x="438" y="9"/>
      <point x="430" y="0"/>
      <point x="419" y="0" type="curve" smooth="yes"/>
      <point x="407" y="0"/>
      <point x="400" y="10"/>
      <point x="400" y="23" type="curve" smooth="yes"/>
      <point x="400" y="66" type="line"/>
      <point x="357" y="39"/>
      <point x="293" y="8"/>
      <point x="238" y="8" type="curve" smooth="yes"/>
      <point x="132" y="8"/>
      <point x="52" y="95"/>
      <point x="52" y="223" type="curve" smooth="yes"/>
      <point x="52" y="327"/>
      <point x="117" y="515"/>
      <point x="291" y="515" type="curve" smooth="yes"/>
      <point x="352" y="515"/>
      <point x="413" y="489"/>
    </contour>
    <contour>
      <point x="398" y="110" type="curve"/>
      <point x="402" y="452" type="line"/>
      <point x="380" y="463"/>
      <point x="331" y="478"/>
      <point x="294" y="478" type="curve" smooth="yes"/>
      <point x="144" y="478"/>
      <point x="91" y="316"/>
      <point x="91" y="225" type="curve" smooth="yes"/>
      <point x="91" y="148"/>
      <point x="129" y="45"/>
      <point x="236" y="45" type="curve" smooth="yes"/>
      <point x="301" y="45"/>
      <point x="372" y="93"/>
    </contour>
  </outline>
  <lib>
    <dict>
      <key>com.fontlab.hintData</key>
      <dict>
        <key>hhints</key>
        <array>
          <dict>
            <key>position</key>
            <integer>0</integer>
            <key>width</key>
            <integer>21</integer>
          </dict>
          <dict>
            <key>position</key>
            <integer>8</integer>
            <key>width</key>
            <integer>37</integer>
          </dict>
          <dict>
            <key>position</key>
            <integer>478</integer>
            <key>width</key>
            <integer>37</integer>
          </dict>
          <dict>
            <key>position</key>
            <integer>600</integer>
            <key>width</key>
            <integer>66</integer>
          </dict>
        </array>
        <key>vhints</key>
        <array>
          <dict>
            <key>position</key>
            <integer>52</integer>
            <key>width</key>
            <integer>39</integer>
          </dict>
          <dict>
            <key>position</key>
            <integer>164</integer>
            <key>width</key>
            <integer>79</integer>
          </dict>
          <dict>
            <key>position</key>
            <integer>330</integer>
            <key>width</key>
            <integer>79</integer>
          </dict>
          <dict>
            <key>position</key>
            <integer>400</integer>
            <key>width</key>
            <integer>38</integer>
          </dict>
        </array>
      </dict>
    </dict>
  </lib>
</glyph>
