<?xml version="1.0" encoding="UTF-8"?>
<glyph name="asciicircum" format="1">
  <advance width="490"/>
  <unicode hex="005E"/>
  <outline>
    <contour>
      <point x="285" y="652" type="curve" smooth="yes"/>
      <point x="392" y="441" type="line" smooth="yes"/>
      <point x="395" y="435"/>
      <point x="395" y="432"/>
      <point x="395" y="429" type="curve" smooth="yes"/>
      <point x="395" y="420"/>
      <point x="387" y="412"/>
      <point x="377" y="412" type="curve" smooth="yes"/>
      <point x="370" y="412"/>
      <point x="365" y="414"/>
      <point x="362" y="420" type="curve" smooth="yes"/>
      <point x="261" y="617" type="line"/>
      <point x="138" y="419" type="line" smooth="yes"/>
      <point x="135" y="414"/>
      <point x="130" y="412"/>
      <point x="124" y="412" type="curve" smooth="yes"/>
      <point x="114" y="412"/>
      <point x="105" y="420"/>
      <point x="105" y="429" type="curve" smooth="yes"/>
      <point x="105" y="432"/>
      <point x="106" y="436"/>
      <point x="109" y="441" type="curve" smooth="yes"/>
      <point x="237" y="654" type="line" smooth="yes"/>
      <point x="243" y="664"/>
      <point x="251" y="670"/>
      <point x="262" y="670" type="curve" smooth="yes"/>
      <point x="271" y="670"/>
      <point x="279" y="664"/>
    </contour>
  </outline>
  <lib>
    <dict>
      <key>com.fontlab.hintData</key>
      <dict>
        <key>hhints</key>
        <array>
          <dict>
            <key>position</key>
            <integer>412</integer>
            <key>width</key>
            <integer>258</integer>
          </dict>
        </array>
        <key>vhints</key>
        <array>
          <dict>
            <key>position</key>
            <integer>362</integer>
            <key>width</key>
            <integer>33</integer>
          </dict>
        </array>
      </dict>
    </dict>
  </lib>
</glyph>
