<?xml version="1.0" encoding="UTF-8"?>
<glyph name="Icircumflex" format="1">
  <advance width="423"/>
  <unicode hex="00CE"/>
  <outline>
    <contour>
      <point x="232" y="902" type="curve" smooth="yes"/>
      <point x="237" y="902"/>
      <point x="243" y="900"/>
      <point x="247" y="896" type="curve" smooth="yes"/>
      <point x="359" y="783" type="line" smooth="yes"/>
      <point x="363" y="779"/>
      <point x="365" y="776"/>
      <point x="365" y="771" type="curve" smooth="yes"/>
      <point x="365" y="762"/>
      <point x="357" y="753"/>
      <point x="348" y="753" type="curve" smooth="yes"/>
      <point x="343" y="753"/>
      <point x="339" y="755"/>
      <point x="335" y="758" type="curve" smooth="yes"/>
      <point x="230" y="853" type="line"/>
      <point x="106" y="757" type="line" smooth="yes"/>
      <point x="103" y="755"/>
      <point x="99" y="753"/>
      <point x="95" y="753" type="curve" smooth="yes"/>
      <point x="85" y="753"/>
      <point x="77" y="762"/>
      <point x="77" y="771" type="curve" smooth="yes"/>
      <point x="77" y="776"/>
      <point x="80" y="781"/>
      <point x="84" y="784" type="curve" smooth="yes"/>
      <point x="219" y="897" type="line" smooth="yes"/>
      <point x="223" y="900"/>
      <point x="228" y="902"/>
    </contour>
    <contour>
      <point x="235" y="37" type="line"/>
      <point x="347" y="37" type="line" smooth="yes"/>
      <point x="359" y="37"/>
      <point x="366" y="29"/>
      <point x="366" y="19" type="curve" smooth="yes"/>
      <point x="366" y="8"/>
      <point x="357" y="-1"/>
      <point x="347" y="-1" type="curve" smooth="yes"/>
      <point x="83" y="-1" type="line" smooth="yes"/>
      <point x="73" y="-1"/>
      <point x="64" y="8"/>
      <point x="64" y="19" type="curve" smooth="yes"/>
      <point x="64" y="29"/>
      <point x="73" y="37"/>
      <point x="83" y="37" type="curve" smooth="yes"/>
      <point x="197" y="37" type="line"/>
      <point x="197" y="643" type="line"/>
      <point x="83" y="643" type="line" smooth="yes"/>
      <point x="73" y="643"/>
      <point x="64" y="652"/>
      <point x="64" y="662" type="curve" smooth="yes"/>
      <point x="64" y="673"/>
      <point x="73" y="681"/>
      <point x="83" y="681" type="curve" smooth="yes"/>
      <point x="347" y="681" type="line" smooth="yes"/>
      <point x="357" y="681"/>
      <point x="366" y="673"/>
      <point x="366" y="662" type="curve" smooth="yes"/>
      <point x="366" y="652"/>
      <point x="357" y="643"/>
      <point x="347" y="643" type="curve" smooth="yes"/>
      <point x="235" y="643" type="line"/>
    </contour>
  </outline>
  <lib>
    <dict>
      <key>com.fontlab.hintData</key>
      <dict>
        <key>hhints</key>
        <array>
          <dict>
            <key>position</key>
            <integer>-1</integer>
            <key>width</key>
            <integer>38</integer>
          </dict>
          <dict>
            <key>position</key>
            <integer>643</integer>
            <key>width</key>
            <integer>38</integer>
          </dict>
        </array>
        <key>vhints</key>
        <array>
          <dict>
            <key>position</key>
            <integer>197</integer>
            <key>width</key>
            <integer>38</integer>
          </dict>
        </array>
      </dict>
    </dict>
  </lib>
</glyph>
