<?xml version="1.0" encoding="UTF-8"?>
<glyph name="ogonek" format="1">
  <advance width="490"/>
  <unicode hex="02DB"/>
  <outline>
    <contour>
      <point x="255" y="-206" type="curve" smooth="yes"/>
      <point x="198" y="-206"/>
      <point x="157" y="-164"/>
      <point x="157" y="-109" type="curve" smooth="yes"/>
      <point x="157" y="-49"/>
      <point x="207" y="-3"/>
      <point x="253" y="24" type="curve" smooth="yes"/>
      <point x="255" y="25"/>
      <point x="260" y="27"/>
      <point x="264" y="27" type="curve" smooth="yes"/>
      <point x="272" y="27"/>
      <point x="277" y="19"/>
      <point x="277" y="10" type="curve" smooth="yes"/>
      <point x="277" y="5"/>
      <point x="267" y="-3"/>
      <point x="254" y="-12" type="curve" smooth="yes"/>
      <point x="226" y="-33"/>
      <point x="188" y="-61"/>
      <point x="188" y="-110" type="curve" smooth="yes"/>
      <point x="188" y="-149"/>
      <point x="218" y="-174"/>
      <point x="256" y="-174" type="curve" smooth="yes"/>
      <point x="279" y="-174"/>
      <point x="302" y="-166"/>
      <point x="324" y="-150" type="curve" smooth="yes"/>
      <point x="327" y="-148"/>
      <point x="330" y="-147"/>
      <point x="333" y="-147" type="curve" smooth="yes"/>
      <point x="340" y="-147"/>
      <point x="348" y="-154"/>
      <point x="348" y="-162" type="curve" smooth="yes"/>
      <point x="348" y="-186"/>
      <point x="289" y="-206"/>
    </contour>
  </outline>
  <lib>
    <dict>
      <key>com.fontlab.hintData</key>
      <dict>
        <key>hhints</key>
        <array>
          <dict>
            <key>position</key>
            <integer>-206</integer>
            <key>width</key>
            <integer>32</integer>
          </dict>
        </array>
        <key>vhints</key>
        <array>
          <dict>
            <key>position</key>
            <integer>157</integer>
            <key>width</key>
            <integer>31</integer>
          </dict>
        </array>
      </dict>
    </dict>
  </lib>
</glyph>
