<?xml version="1.0" encoding="UTF-8"?>
<glyph name="dcroat" format="1">
  <advance width="540"/>
  <unicode hex="0111"/>
  <outline>
    <contour>
      <point x="513" y="696" type="line"/>
      <point x="553" y="703" type="line"/>
      <point x="531" y="609" type="line"/>
      <point x="632" y="609" type="line"/>
      <point x="618" y="576" type="line"/>
      <point x="523" y="576" type="line"/>
      <point x="389" y="9" type="line"/>
      <point x="350" y="2" type="line"/>
      <point x="372" y="97" type="line"/>
      <point x="317" y="45"/>
      <point x="244" y="6"/>
      <point x="166" y="6" type="curve" smooth="yes"/>
      <point x="75" y="6"/>
      <point x="38" y="76"/>
      <point x="38" y="158" type="curve" smooth="yes"/>
      <point x="38" y="344"/>
      <point x="157" y="495"/>
      <point x="318" y="495" type="curve" smooth="yes"/>
      <point x="374" y="495"/>
      <point x="422" y="475"/>
      <point x="458" y="457" type="curve"/>
      <point x="485" y="576" type="line"/>
      <point x="384" y="576" type="line"/>
      <point x="398" y="609" type="line"/>
      <point x="493" y="609" type="line"/>
    </contour>
    <contour>
      <point x="387" y="158" type="curve" smooth="yes"/>
      <point x="448" y="417" type="line"/>
      <point x="429" y="428"/>
      <point x="370" y="460"/>
      <point x="307" y="460" type="curve" smooth="yes"/>
      <point x="124" y="460"/>
      <point x="75" y="235"/>
      <point x="75" y="157" type="curve" smooth="yes"/>
      <point x="75" y="96"/>
      <point x="96" y="36"/>
      <point x="172" y="36" type="curve" smooth="yes"/>
      <point x="283" y="36"/>
      <point x="379" y="123"/>
    </contour>
  </outline>
  <lib>
    <dict>
      <key>com.fontlab.hintData</key>
      <dict>
        <key>hhints</key>
        <array>
          <dict>
            <key>position</key>
            <integer>6</integer>
            <key>width</key>
            <integer>30</integer>
          </dict>
          <dict>
            <key>position</key>
            <integer>460</integer>
            <key>width</key>
            <integer>35</integer>
          </dict>
          <dict>
            <key>position</key>
            <integer>576</integer>
            <key>width</key>
            <integer>33</integer>
          </dict>
        </array>
        <key>vhints</key>
        <array>
          <dict>
            <key>position</key>
            <integer>38</integer>
            <key>width</key>
            <integer>37</integer>
          </dict>
        </array>
      </dict>
    </dict>
  </lib>
</glyph>
