<?xml version="1.0" encoding="UTF-8"?>
<glyph name="section" format="1">
  <advance width="465"/>
  <unicode hex="00A7"/>
  <outline>
    <contour>
      <point x="467" y="530" type="curve"/>
      <point x="432" y="534" type="line"/>
      <point x="435" y="539"/>
      <point x="437" y="553"/>
      <point x="437" y="560" type="curve" smooth="yes"/>
      <point x="437" y="595"/>
      <point x="407" y="619"/>
      <point x="338" y="619" type="curve" smooth="yes"/>
      <point x="250" y="619"/>
      <point x="181" y="581"/>
      <point x="181" y="518" type="curve" smooth="yes"/>
      <point x="181" y="464"/>
      <point x="243" y="446"/>
      <point x="281" y="433" type="curve" smooth="yes"/>
      <point x="357" y="407"/>
      <point x="417" y="386"/>
      <point x="417" y="317" type="curve" smooth="yes"/>
      <point x="417" y="288"/>
      <point x="410" y="255"/>
      <point x="376" y="217" type="curve"/>
      <point x="382" y="202"/>
      <point x="386" y="186"/>
      <point x="386" y="168" type="curve" smooth="yes"/>
      <point x="386" y="98"/>
      <point x="314" y="0"/>
      <point x="187" y="0" type="curve" smooth="yes"/>
      <point x="80" y="0"/>
      <point x="37" y="75"/>
      <point x="33" y="115" type="curve"/>
      <point x="70" y="121" type="line"/>
      <point x="81" y="65"/>
      <point x="125" y="34"/>
      <point x="194" y="34" type="curve" smooth="yes"/>
      <point x="346" y="34"/>
      <point x="352" y="163"/>
      <point x="352" y="163" type="curve" smooth="yes"/>
      <point x="352" y="200"/>
      <point x="327" y="224"/>
      <point x="243" y="251" type="curve" smooth="yes"/>
      <point x="157" y="278"/>
      <point x="117" y="309"/>
      <point x="117" y="362" type="curve" smooth="yes"/>
      <point x="117" y="402"/>
      <point x="137" y="434"/>
      <point x="164" y="460" type="curve"/>
      <point x="154" y="477"/>
      <point x="148" y="495"/>
      <point x="148" y="515" type="curve" smooth="yes"/>
      <point x="148" y="623"/>
      <point x="272" y="650"/>
      <point x="342" y="650" type="curve" smooth="yes"/>
      <point x="433" y="650"/>
      <point x="473" y="612"/>
      <point x="473" y="563" type="curve" smooth="yes"/>
      <point x="473" y="553"/>
      <point x="471" y="540"/>
    </contour>
    <contour>
      <point x="355" y="239" type="curve"/>
      <point x="381" y="263"/>
      <point x="382" y="302"/>
      <point x="382" y="313" type="curve" smooth="yes"/>
      <point x="382" y="349"/>
      <point x="357" y="373"/>
      <point x="274" y="400" type="curve" smooth="yes"/>
      <point x="241" y="411"/>
      <point x="212" y="424"/>
      <point x="188" y="440" type="curve"/>
      <point x="163" y="417"/>
      <point x="152" y="394"/>
      <point x="152" y="369" type="curve" smooth="yes"/>
      <point x="152" y="317"/>
      <point x="211" y="296"/>
      <point x="250" y="284" type="curve" smooth="yes"/>
      <point x="287" y="272"/>
      <point x="332" y="254"/>
    </contour>
  </outline>
  <lib>
    <dict>
      <key>com.fontlab.hintData</key>
      <dict>
        <key>hhints</key>
        <array>
          <dict>
            <key>position</key>
            <integer>0</integer>
            <key>width</key>
            <integer>34</integer>
          </dict>
          <dict>
            <key>position</key>
            <integer>619</integer>
            <key>width</key>
            <integer>31</integer>
          </dict>
        </array>
        <key>vhints</key>
        <array>
          <dict>
            <key>position</key>
            <integer>33</integer>
            <key>width</key>
            <integer>37</integer>
          </dict>
          <dict>
            <key>position</key>
            <integer>117</integer>
            <key>width</key>
            <integer>35</integer>
          </dict>
          <dict>
            <key>position</key>
            <integer>148</integer>
            <key>width</key>
            <integer>33</integer>
          </dict>
          <dict>
            <key>position</key>
            <integer>352</integer>
            <key>width</key>
            <integer>34</integer>
          </dict>
          <dict>
            <key>position</key>
            <integer>382</integer>
            <key>width</key>
            <integer>35</integer>
          </dict>
          <dict>
            <key>position</key>
            <integer>437</integer>
            <key>width</key>
            <integer>36</integer>
          </dict>
        </array>
      </dict>
    </dict>
  </lib>
</glyph>
