<?xml version="1.0" encoding="UTF-8"?>
<glyph name="edieresis" format="1">
  <advance width="527"/>
  <unicode hex="00EB"/>
  <outline>
    <contour>
      <point x="237" y="0" type="curve" smooth="yes"/>
      <point x="121" y="0"/>
      <point x="42" y="85"/>
      <point x="42" y="197" type="curve" smooth="yes"/>
      <point x="42" y="357"/>
      <point x="191" y="502"/>
      <point x="343" y="502" type="curve" smooth="yes"/>
      <point x="432" y="502"/>
      <point x="491" y="435"/>
      <point x="497" y="355" type="curve"/>
      <point x="101" y="159" type="line"/>
      <point x="119" y="95"/>
      <point x="173" y="51"/>
      <point x="247" y="51" type="curve" smooth="yes"/>
      <point x="298" y="51"/>
      <point x="351" y="72"/>
      <point x="396" y="111" type="curve"/>
      <point x="426" y="76" type="line"/>
      <point x="369" y="27"/>
      <point x="302" y="0"/>
    </contour>
    <contour>
      <point x="332" y="451" type="curve" smooth="yes"/>
      <point x="207" y="451"/>
      <point x="95" y="330"/>
      <point x="95" y="208" type="curve"/>
      <point x="435" y="378" type="line"/>
      <point x="419" y="424"/>
      <point x="379" y="451"/>
    </contour>
    <contour>
      <point x="325" y="663" type="line"/>
      <point x="300" y="581" type="line"/>
      <point x="224" y="571" type="line"/>
      <point x="250" y="653" type="line"/>
    </contour>
    <contour>
      <point x="485" y="663" type="line"/>
      <point x="460" y="581" type="line"/>
      <point x="384" y="571" type="line"/>
      <point x="410" y="653" type="line"/>
    </contour>
  </outline>
  <lib>
    <dict>
      <key>com.fontlab.hintData</key>
      <dict>
        <key>hhints</key>
        <array>
          <dict>
            <key>position</key>
            <integer>0</integer>
            <key>width</key>
            <integer>51</integer>
          </dict>
          <dict>
            <key>position</key>
            <integer>451</integer>
            <key>width</key>
            <integer>51</integer>
          </dict>
        </array>
        <key>vhints</key>
        <array>
          <dict>
            <key>position</key>
            <integer>42</integer>
            <key>width</key>
            <integer>53</integer>
          </dict>
        </array>
      </dict>
    </dict>
  </lib>
</glyph>
