<?xml version="1.0" encoding="UTF-8"?>
<glyph name="eight" format="1">
  <advance width="547"/>
  <unicode hex="0038"/>
  <outline>
    <contour>
      <point x="216" y="-3" type="curve" smooth="yes"/>
      <point x="111" y="-3"/>
      <point x="45" y="55"/>
      <point x="45" y="140" type="curve" smooth="yes"/>
      <point x="45" y="268"/>
      <point x="154" y="335"/>
      <point x="228" y="368" type="curve"/>
      <point x="185" y="389"/>
      <point x="148" y="422"/>
      <point x="148" y="478" type="curve" smooth="yes"/>
      <point x="148" y="608"/>
      <point x="267" y="686"/>
      <point x="373" y="686" type="curve" smooth="yes"/>
      <point x="463" y="686"/>
      <point x="521" y="636"/>
      <point x="521" y="561" type="curve" smooth="yes"/>
      <point x="521" y="458"/>
      <point x="440" y="404"/>
      <point x="376" y="375" type="curve"/>
      <point x="435" y="342"/>
      <point x="467" y="290"/>
      <point x="467" y="228" type="curve" smooth="yes"/>
      <point x="467" y="99"/>
      <point x="346" y="-3"/>
    </contour>
    <contour>
      <point x="299" y="343" type="curve"/>
      <point x="224" y="315"/>
      <point x="99" y="264"/>
      <point x="99" y="151" type="curve" smooth="yes"/>
      <point x="99" y="92"/>
      <point x="153" y="52"/>
      <point x="228" y="52" type="curve" smooth="yes"/>
      <point x="302" y="52"/>
      <point x="411" y="103"/>
      <point x="411" y="215" type="curve" smooth="yes"/>
      <point x="411" y="282"/>
      <point x="358" y="324"/>
    </contour>
    <contour>
      <point x="308" y="401" type="curve"/>
      <point x="394" y="437"/>
      <point x="466" y="470"/>
      <point x="466" y="551" type="curve" smooth="yes"/>
      <point x="466" y="601"/>
      <point x="421" y="630"/>
      <point x="361" y="630" type="curve" smooth="yes"/>
      <point x="275" y="630"/>
      <point x="204" y="565"/>
      <point x="204" y="492" type="curve" smooth="yes"/>
      <point x="204" y="450"/>
      <point x="236" y="422"/>
    </contour>
  </outline>
  <lib>
    <dict>
      <key>com.fontlab.hintData</key>
      <dict>
        <key>hhints</key>
        <array>
          <dict>
            <key>position</key>
            <integer>-3</integer>
            <key>width</key>
            <integer>55</integer>
          </dict>
          <dict>
            <key>position</key>
            <integer>630</integer>
            <key>width</key>
            <integer>56</integer>
          </dict>
        </array>
        <key>vhints</key>
        <array>
          <dict>
            <key>position</key>
            <integer>45</integer>
            <key>width</key>
            <integer>54</integer>
          </dict>
          <dict>
            <key>position</key>
            <integer>148</integer>
            <key>width</key>
            <integer>56</integer>
          </dict>
          <dict>
            <key>position</key>
            <integer>411</integer>
            <key>width</key>
            <integer>56</integer>
          </dict>
          <dict>
            <key>position</key>
            <integer>466</integer>
            <key>width</key>
            <integer>55</integer>
          </dict>
        </array>
      </dict>
    </dict>
  </lib>
</glyph>
