<?xml version="1.0" encoding="UTF-8"?>
<glyph name="hungarumlaut" format="1">
  <advance width="500"/>
  <unicode hex="02DD"/>
  <outline>
    <contour>
      <point x="300" y="602" type="line"/>
      <point x="476" y="724" type="line"/>
      <point x="520" y="679" type="line"/>
      <point x="334" y="567" type="line"/>
    </contour>
    <contour>
      <point x="140" y="602" type="line"/>
      <point x="316" y="724" type="line"/>
      <point x="359" y="679" type="line"/>
      <point x="173" y="567" type="line"/>
    </contour>
  </outline>
  <lib>
    <dict>
      <key>com.fontlab.hintData</key>
      <dict>
        <key>hhints</key>
        <array>
          <dict>
            <key>position</key>
            <integer>567</integer>
            <key>width</key>
            <integer>157</integer>
          </dict>
        </array>
      </dict>
    </dict>
  </lib>
</glyph>
