<?xml version="1.0" encoding="UTF-8"?>
<glyph name="w" format="1">
  <advance width="653"/>
  <unicode hex="0077"/>
  <outline>
    <contour>
      <point x="683" y="496" type="line"/>
      <point x="428" y="12" type="line"/>
      <point x="368" y="0" type="line"/>
      <point x="357" y="388" type="line"/>
      <point x="145" y="12" type="line"/>
      <point x="83" y="0" type="line"/>
      <point x="88" y="485" type="line"/>
      <point x="144" y="497" type="line"/>
      <point x="138" y="91" type="line"/>
      <point x="353" y="485" type="line"/>
      <point x="411" y="495" type="line"/>
      <point x="417" y="88" type="line"/>
      <point x="620" y="485" type="line"/>
    </contour>
  </outline>
  <lib>
    <dict>
      <key>com.fontlab.hintData</key>
      <dict>
        <key>hhints</key>
        <array>
          <dict>
            <key>position</key>
            <integer>0</integer>
            <key>width</key>
            <integer>21</integer>
          </dict>
        </array>
        <key>vhints</key>
        <array>
          <dict>
            <key>position</key>
            <integer>83</integer>
            <key>width</key>
            <integer>55</integer>
          </dict>
          <dict>
            <key>position</key>
            <integer>357</integer>
            <key>width</key>
            <integer>54</integer>
          </dict>
          <dict>
            <key>position</key>
            <integer>368</integer>
            <key>width</key>
            <integer>49</integer>
          </dict>
        </array>
      </dict>
    </dict>
  </lib>
</glyph>
