<?xml version="1.0" encoding="UTF-8"?>
<glyph name="M" format="1">
  <advance width="857"/>
  <unicode hex="004D"/>
  <outline>
    <contour>
      <point x="22" y="0" type="curve" smooth="yes"/>
      <point x="35" y="0"/>
      <point x="48" y="8"/>
      <point x="54" y="22" type="curve" smooth="yes"/>
      <point x="280" y="545" type="line"/>
      <point x="336" y="19" type="line"/>
      <point x="336" y="8"/>
      <point x="346" y="0"/>
      <point x="358" y="0" type="curve" smooth="yes"/>
      <point x="370" y="0"/>
      <point x="382" y="7"/>
      <point x="388" y="18" type="curve" smooth="yes"/>
      <point x="695" y="553" type="line"/>
      <point x="700" y="22" type="line" smooth="yes"/>
      <point x="700" y="9"/>
      <point x="709" y="0"/>
      <point x="724" y="0" type="curve" smooth="yes"/>
      <point x="740" y="0"/>
      <point x="753" y="12"/>
      <point x="756" y="24" type="curve" smooth="yes"/>
      <point x="757" y="31"/>
      <point x="758" y="40"/>
      <point x="758" y="52" type="curve" smooth="yes"/>
      <point x="751" y="659" type="line"/>
      <point x="750" y="672"/>
      <point x="743" y="680"/>
      <point x="730" y="681" type="curve" smooth="yes"/>
      <point x="717" y="681"/>
      <point x="705" y="675"/>
      <point x="698" y="663" type="curve" smooth="yes"/>
      <point x="384" y="115" type="line"/>
      <point x="327" y="662" type="line" smooth="yes"/>
      <point x="326" y="673"/>
      <point x="317" y="681"/>
      <point x="305" y="681" type="curve" smooth="yes"/>
      <point x="291" y="681"/>
      <point x="279" y="673"/>
      <point x="273" y="659" type="curve" smooth="yes"/>
      <point x="9" y="49" type="line" smooth="yes"/>
      <point x="4.22568" y="39.4514"/>
      <point x="-0.36753" y="29.2257"/>
      <point x="-0.36753" y="21.1753" type="curve" smooth="yes"/>
      <point x="-0.36753" y="11.5812"/>
      <point x="6.18377" y="0"/>
    </contour>
  </outline>
  <lib>
    <dict>
      <key>com.fontlab.hintData</key>
      <dict>
        <key>hhints</key>
        <array>
          <dict>
            <key>position</key>
            <integer>0</integer>
            <key>width</key>
            <integer>21</integer>
          </dict>
          <dict>
            <key>position</key>
            <integer>661</integer>
            <key>width</key>
            <integer>20</integer>
          </dict>
        </array>
        <key>vhints</key>
        <array>
          <dict>
            <key>position</key>
            <integer>695</integer>
            <key>width</key>
            <integer>56</integer>
          </dict>
          <dict>
            <key>position</key>
            <integer>700</integer>
            <key>width</key>
            <integer>56</integer>
          </dict>
        </array>
      </dict>
      <key>com.schriftgestaltung.Glyphs.lastChange</key>
      <string>2019-10-15 23:54:51 +0000</string>
    </dict>
  </lib>
</glyph>
