<?xml version="1.0" encoding="UTF-8"?>
<glyph name="onesuperior" format="1">
  <advance width="166"/>
  <unicode hex="00B9"/>
  <outline>
    <contour>
      <point x="64" y="444" type="curve" smooth="yes"/>
      <point x="182" y="444" type="line" smooth="yes"/>
      <point x="193.093" y="444"/>
      <point x="210.306" y="453.269"/>
      <point x="210.306" y="470.672" type="curve" smooth="yes"/>
      <point x="210.306" y="481.153"/>
      <point x="202.762" y="490"/>
      <point x="192" y="490" type="curve" smooth="yes"/>
      <point x="160" y="490" type="line"/>
      <point x="232" y="805" type="line"/>
      <point x="234" y="817"/>
      <point x="226" y="829"/>
      <point x="213" y="829" type="curve" smooth="yes"/>
      <point x="207" y="829"/>
      <point x="200" y="826"/>
      <point x="194" y="821" type="curve" smooth="yes"/>
      <point x="109" y="746" type="line" smooth="yes"/>
      <point x="104" y="741"/>
      <point x="101" y="735"/>
      <point x="99" y="729" type="curve"/>
      <point x="97" y="716"/>
      <point x="107" y="707"/>
      <point x="117" y="707" type="curve" smooth="yes"/>
      <point x="125" y="707"/>
      <point x="130" y="709"/>
      <point x="136" y="714" type="curve" smooth="yes"/>
      <point x="172" y="745" type="line"/>
      <point x="114" y="490" type="line"/>
      <point x="74" y="490" type="line" smooth="yes"/>
      <point x="62" y="490"/>
      <point x="49" y="481"/>
      <point x="46" y="467" type="curve" smooth="yes"/>
      <point x="45.456" y="464.824"/>
      <point x="45.1751" y="462.681"/>
      <point x="45.1751" y="460.63" type="curve" smooth="yes"/>
      <point x="45.1751" y="451.372"/>
      <point x="50.9014" y="444"/>
    </contour>
  </outline>
  <lib>
    <dict>
      <key>com.fontlab.hintData</key>
      <dict>
        <key>hhints</key>
        <array>
          <dict>
            <key>position</key>
            <integer>444</integer>
            <key>width</key>
            <integer>46</integer>
          </dict>
        </array>
        <key>vhints</key>
        <array>
          <dict>
            <key>position</key>
            <integer>45</integer>
            <key>width</key>
            <integer>187</integer>
          </dict>
        </array>
      </dict>
      <key>com.schriftgestaltung.Glyphs.lastChange</key>
      <string>2019-10-15 23:54:51 +0000</string>
    </dict>
  </lib>
</glyph>
