<?xml version="1.0" encoding="UTF-8"?>
<glyph name="W" format="1">
  <advance width="867"/>
  <unicode hex="0057"/>
  <outline>
    <contour>
      <point x="173" y="0" type="curve" smooth="yes"/>
      <point x="186" y="0"/>
      <point x="197" y="6"/>
      <point x="204" y="19" type="curve" smooth="yes"/>
      <point x="491" y="556" type="line"/>
      <point x="525" y="20" type="line"/>
      <point x="525" y="7"/>
      <point x="534" y="0"/>
      <point x="548" y="0" type="curve" smooth="yes"/>
      <point x="560" y="0"/>
      <point x="571" y="7"/>
      <point x="577" y="18" type="curve" smooth="yes"/>
      <point x="935" y="644" type="line" smooth="yes"/>
      <point x="937.45" y="647.675"/>
      <point x="940.276" y="652.438"/>
      <point x="940.276" y="658.367" type="curve" smooth="yes"/>
      <point x="940.276" y="669.469"/>
      <point x="931.521" y="681"/>
      <point x="917" y="681" type="curve" smooth="yes"/>
      <point x="906" y="681"/>
      <point x="894" y="674"/>
      <point x="887" y="663" type="curve" smooth="yes"/>
      <point x="576" y="120" type="line"/>
      <point x="542" y="661" type="line"/>
      <point x="542" y="673"/>
      <point x="532" y="681"/>
      <point x="520" y="681" type="curve" smooth="yes"/>
      <point x="507" y="681"/>
      <point x="496" y="675"/>
      <point x="489" y="662" type="curve" smooth="yes"/>
      <point x="199" y="121" type="line"/>
      <point x="150" y="661" type="line" smooth="yes"/>
      <point x="149" y="673"/>
      <point x="140" y="681"/>
      <point x="127" y="681" type="curve" smooth="yes"/>
      <point x="112" y="681"/>
      <point x="98" y="670"/>
      <point x="95" y="654" type="curve" smooth="yes"/>
      <point x="94" y="651"/>
      <point x="94" y="645"/>
      <point x="95" y="632" type="curve" smooth="yes"/>
      <point x="151" y="19" type="line"/>
      <point x="151" y="8"/>
      <point x="161" y="0"/>
    </contour>
  </outline>
  <lib>
    <dict>
      <key>com.fontlab.hintData</key>
      <dict>
        <key>hhints</key>
        <array>
          <dict>
            <key>position</key>
            <integer>0</integer>
            <key>width</key>
            <integer>21</integer>
          </dict>
          <dict>
            <key>position</key>
            <integer>661</integer>
            <key>width</key>
            <integer>20</integer>
          </dict>
        </array>
        <key>vhints</key>
        <array>
          <dict>
            <key>position</key>
            <integer>95</integer>
            <key>width</key>
            <integer>55</integer>
          </dict>
        </array>
      </dict>
      <key>com.schriftgestaltung.Glyphs.lastChange</key>
      <string>2019-10-15 23:54:51 +0000</string>
    </dict>
  </lib>
</glyph>
