<?xml version="1.0" encoding="UTF-8"?>
<glyph name="ntilde" format="1">
  <advance width="561"/>
  <unicode hex="00F1"/>
  <outline>
    <contour>
      <point x="158" y="452" type="curve" smooth="yes"/>
      <point x="158" y="395" type="line"/>
      <point x="196" y="451"/>
      <point x="255" y="499"/>
      <point x="323" y="499" type="curve" smooth="yes"/>
      <point x="450.636" y="499"/>
      <point x="475.124" y="400.457"/>
      <point x="475.124" y="188.346" type="curve" smooth="yes"/>
      <point x="475.124" y="179.431"/>
      <point x="475.081" y="170.316"/>
      <point x="475" y="161" type="curve" smooth="yes"/>
      <point x="474" y="48" type="line" smooth="yes"/>
      <point x="474" y="23"/>
      <point x="455" y="0"/>
      <point x="428" y="0" type="curve" smooth="yes"/>
      <point x="402" y="0"/>
      <point x="380" y="23"/>
      <point x="380" y="47" type="curve" smooth="yes"/>
      <point x="380" y="178" type="line" smooth="yes"/>
      <point x="380" y="398"/>
      <point x="351" y="404"/>
      <point x="319" y="404" type="curve" smooth="yes"/>
      <point x="287" y="404"/>
      <point x="247" y="387"/>
      <point x="204" y="308" type="curve" smooth="yes"/>
      <point x="175" y="254"/>
      <point x="157" y="194"/>
      <point x="157" y="134" type="curve" smooth="yes"/>
      <point x="157" y="50" type="line" smooth="yes"/>
      <point x="157" y="22"/>
      <point x="140" y="0"/>
      <point x="110" y="0" type="curve" smooth="yes"/>
      <point x="84" y="0"/>
      <point x="62" y="22"/>
      <point x="62" y="46" type="curve" smooth="yes"/>
      <point x="62" y="452" type="line" smooth="yes"/>
      <point x="62" y="479"/>
      <point x="86" y="500"/>
      <point x="112" y="500" type="curve" smooth="yes"/>
      <point x="137" y="500"/>
      <point x="158" y="479"/>
    </contour>
    <contour>
      <point x="414" y="691" type="curve" smooth="yes"/>
      <point x="418" y="706"/>
      <point x="430" y="713"/>
      <point x="445" y="713" type="curve" smooth="yes"/>
      <point x="464" y="713"/>
      <point x="484" y="703"/>
      <point x="484" y="680" type="curve" smooth="yes"/>
      <point x="484" y="676"/>
      <point x="484" y="669"/>
      <point x="481" y="658" type="curve" smooth="yes"/>
      <point x="471" y="627"/>
      <point x="436" y="525"/>
      <point x="335" y="525" type="curve" smooth="yes"/>
      <point x="303" y="525"/>
      <point x="276" y="542"/>
      <point x="254" y="573" type="curve" smooth="yes"/>
      <point x="238" y="596"/>
      <point x="227" y="608"/>
      <point x="212" y="608" type="curve" smooth="yes"/>
      <point x="177" y="608"/>
      <point x="160" y="556"/>
      <point x="155" y="540" type="curve" smooth="yes"/>
      <point x="150" y="525"/>
      <point x="141" y="518"/>
      <point x="126" y="518" type="curve" smooth="yes"/>
      <point x="107" y="518"/>
      <point x="87" y="528"/>
      <point x="87" y="551" type="curve" smooth="yes"/>
      <point x="87" y="555"/>
      <point x="87" y="562"/>
      <point x="90" y="573" type="curve" smooth="yes"/>
      <point x="107" y="630"/>
      <point x="146" y="697"/>
      <point x="224" y="697" type="curve" smooth="yes"/>
      <point x="263" y="697"/>
      <point x="289" y="680"/>
      <point x="311" y="649" type="curve" smooth="yes"/>
      <point x="327" y="627"/>
      <point x="338" y="613"/>
      <point x="353" y="613" type="curve" smooth="yes"/>
      <point x="374" y="613"/>
      <point x="400" y="637"/>
    </contour>
  </outline>
  <lib>
    <dict>
      <key>com.fontlab.hintData</key>
      <dict>
        <key>hhints</key>
        <array>
          <dict>
            <key>position</key>
            <integer>0</integer>
            <key>width</key>
            <integer>21</integer>
          </dict>
          <dict>
            <key>position</key>
            <integer>404</integer>
            <key>width</key>
            <integer>95</integer>
          </dict>
          <dict>
            <key>position</key>
            <integer>480</integer>
            <key>width</key>
            <integer>20</integer>
          </dict>
          <dict>
            <key>position</key>
            <integer>525</integer>
            <key>width</key>
            <integer>88</integer>
          </dict>
          <dict>
            <key>position</key>
            <integer>608</integer>
            <key>width</key>
            <integer>89</integer>
          </dict>
        </array>
        <key>vhints</key>
        <array>
          <dict>
            <key>position</key>
            <integer>62</integer>
            <key>width</key>
            <integer>95</integer>
          </dict>
          <dict>
            <key>position</key>
            <integer>87</integer>
            <key>width</key>
            <integer>68</integer>
          </dict>
          <dict>
            <key>position</key>
            <integer>380</integer>
            <key>width</key>
            <integer>95</integer>
          </dict>
          <dict>
            <key>position</key>
            <integer>414</integer>
            <key>width</key>
            <integer>70</integer>
          </dict>
        </array>
      </dict>
    </dict>
  </lib>
</glyph>
