<?xml version="1.0" encoding="UTF-8"?>
<glyph name="egrave" format="1">
  <advance width="547"/>
  <unicode hex="00E8"/>
  <outline>
    <contour>
      <point x="369" y="135" type="curve" smooth="yes"/>
      <point x="380" y="144"/>
      <point x="393" y="151"/>
      <point x="406" y="151" type="curve" smooth="yes"/>
      <point x="429.536" y="151"/>
      <point x="443.954" y="135.802"/>
      <point x="443.954" y="114.019" type="curve" smooth="yes"/>
      <point x="443.954" y="110.813"/>
      <point x="443.641" y="107.464"/>
      <point x="443" y="104" type="curve" smooth="yes"/>
      <point x="440" y="92"/>
      <point x="433" y="81"/>
      <point x="424" y="74" type="curve"/>
      <point x="380" y="33"/>
      <point x="304" y="0"/>
      <point x="242" y="0" type="curve" smooth="yes"/>
      <point x="110.415" y="0"/>
      <point x="38.7837" y="85.4338"/>
      <point x="38.7837" y="189.479" type="curve" smooth="yes"/>
      <point x="38.7837" y="205.621"/>
      <point x="40.5079" y="222.211"/>
      <point x="44" y="239" type="curve" smooth="yes"/>
      <point x="73" y="376"/>
      <point x="189" y="499"/>
      <point x="326" y="499" type="curve" smooth="yes"/>
      <point x="445.097" y="499"/>
      <point x="488.487" y="420.037"/>
      <point x="488.487" y="370.079" type="curve" smooth="yes"/>
      <point x="488.487" y="364.666"/>
      <point x="487.978" y="359.594"/>
      <point x="487" y="355" type="curve" smooth="yes"/>
      <point x="483" y="338"/>
      <point x="470" y="321"/>
      <point x="446" y="309" type="curve" smooth="yes"/>
      <point x="145" y="155" type="line"/>
      <point x="166" y="114"/>
      <point x="204" y="93"/>
      <point x="261" y="93" type="curve" smooth="yes"/>
      <point x="294" y="93"/>
      <point x="342" y="112"/>
    </contour>
    <contour>
      <point x="137" y="247" type="curve"/>
      <point x="390" y="372" type="line"/>
      <point x="378" y="394"/>
      <point x="352" y="405"/>
      <point x="306" y="405" type="curve" smooth="yes"/>
      <point x="229" y="405"/>
      <point x="160" y="335"/>
    </contour>
    <contour>
      <point x="355" y="543" type="curve" smooth="yes"/>
      <point x="272" y="654" type="line" smooth="yes"/>
      <point x="266.144" y="661.321"/>
      <point x="262.431" y="669.713"/>
      <point x="262.431" y="679.962" type="curve" smooth="yes"/>
      <point x="262.431" y="683.713"/>
      <point x="262.928" y="687.713"/>
      <point x="264" y="692" type="curve" smooth="yes"/>
      <point x="270" y="720"/>
      <point x="301" y="746"/>
      <point x="329" y="746" type="curve" smooth="yes"/>
      <point x="347" y="746"/>
      <point x="361" y="736"/>
      <point x="368" y="724" type="curve" smooth="yes"/>
      <point x="438" y="605" type="line" smooth="yes"/>
      <point x="442.963" y="596.492"/>
      <point x="444.91" y="589.995"/>
      <point x="444.91" y="583.37" type="curve" smooth="yes"/>
      <point x="444.91" y="580.651"/>
      <point x="444.582" y="577.91"/>
      <point x="444" y="575" type="curve" smooth="yes"/>
      <point x="438" y="548"/>
      <point x="410" y="528"/>
      <point x="386" y="528" type="curve" smooth="yes"/>
      <point x="371" y="528"/>
      <point x="361" y="534"/>
    </contour>
  </outline>
  <lib>
    <dict>
      <key>com.fontlab.hintData</key>
      <dict>
        <key>hhints</key>
        <array>
          <dict>
            <key>position</key>
            <integer>0</integer>
            <key>width</key>
            <integer>93</integer>
          </dict>
          <dict>
            <key>position</key>
            <integer>405</integer>
            <key>width</key>
            <integer>94</integer>
          </dict>
        </array>
      </dict>
    </dict>
  </lib>
</glyph>
