<?xml version="1.0" encoding="UTF-8"?>
<glyph name="equal" format="1">
  <advance width="519"/>
  <unicode hex="003D"/>
  <outline>
    <contour>
      <point x="386" y="292" type="curve" smooth="yes"/>
      <point x="126" y="292" type="line" smooth="yes"/>
      <point x="102.817" y="292"/>
      <point x="87.7433" y="307.483"/>
      <point x="87.7433" y="328.319" type="curve" smooth="yes"/>
      <point x="87.7433" y="331.749"/>
      <point x="88.1518" y="335.325"/>
      <point x="89" y="339" type="curve" smooth="yes"/>
      <point x="94" y="364"/>
      <point x="119" y="387"/>
      <point x="146" y="387" type="curve" smooth="yes"/>
      <point x="406" y="387" type="line" smooth="yes"/>
      <point x="428.171" y="387"/>
      <point x="444.837" y="368.91"/>
      <point x="444.837" y="347.379" type="curve" smooth="yes"/>
      <point x="444.837" y="344.632"/>
      <point x="444.566" y="341.829"/>
      <point x="444" y="339" type="curve" smooth="yes"/>
      <point x="438" y="313"/>
      <point x="411" y="292"/>
    </contour>
    <contour>
      <point x="347" y="112" type="curve" smooth="yes"/>
      <point x="87" y="112" type="line" smooth="yes"/>
      <point x="63.4639" y="112"/>
      <point x="49.0463" y="127.957"/>
      <point x="49.0463" y="149.274" type="curve" smooth="yes"/>
      <point x="49.0463" y="152.411"/>
      <point x="49.3585" y="155.664"/>
      <point x="50" y="159" type="curve"/>
      <point x="56" y="184"/>
      <point x="80" y="207"/>
      <point x="107" y="207" type="curve" smooth="yes"/>
      <point x="367" y="207" type="line" smooth="yes"/>
      <point x="388.849" y="207"/>
      <point x="406.115" y="189.432"/>
      <point x="406.115" y="168.315" type="curve" smooth="yes"/>
      <point x="406.115" y="165.27"/>
      <point x="405.756" y="162.151"/>
      <point x="405" y="159" type="curve"/>
      <point x="400" y="133"/>
      <point x="372" y="112"/>
    </contour>
  </outline>
  <lib>
    <dict>
      <key>com.fontlab.hintData</key>
      <dict>
        <key>hhints</key>
        <array>
          <dict>
            <key>position</key>
            <integer>112</integer>
            <key>width</key>
            <integer>95</integer>
          </dict>
          <dict>
            <key>position</key>
            <integer>292</integer>
            <key>width</key>
            <integer>95</integer>
          </dict>
        </array>
      </dict>
    </dict>
  </lib>
</glyph>
