<?xml version="1.0" encoding="UTF-8"?>
<glyph name="ntilde" format="1">
  <advance width="561"/>
  <unicode hex="00F1"/>
  <outline>
    <contour>
      <point x="199" y="452" type="curve"/>
      <point x="186" y="395" type="line"/>
      <point x="236" y="451"/>
      <point x="306" y="499"/>
      <point x="374" y="499" type="curve" smooth="yes"/>
      <point x="455.372" y="499"/>
      <point x="486.211" y="458.947"/>
      <point x="486.211" y="374.948" type="curve" smooth="yes"/>
      <point x="486.211" y="321.653"/>
      <point x="473.797" y="250.669"/>
      <point x="454" y="161" type="curve" smooth="yes"/>
      <point x="429" y="48" type="line" smooth="yes"/>
      <point x="423" y="23"/>
      <point x="400" y="0"/>
      <point x="373" y="0" type="curve" smooth="yes"/>
      <point x="349.934" y="0"/>
      <point x="333.164" y="18.1019"/>
      <point x="333.164" y="38.9447" type="curve" smooth="yes"/>
      <point x="333.164" y="41.596"/>
      <point x="333.436" y="44.2916"/>
      <point x="334" y="47" type="curve" smooth="yes"/>
      <point x="362" y="178" type="line" smooth="yes"/>
      <point x="379.984" y="262.179"/>
      <point x="386.987" y="315.027"/>
      <point x="386.987" y="348.196" type="curve" smooth="yes"/>
      <point x="386.987" y="401.713"/>
      <point x="368.756" y="404"/>
      <point x="349" y="404" type="curve" smooth="yes"/>
      <point x="317" y="404"/>
      <point x="274" y="387"/>
      <point x="214" y="308" type="curve" smooth="yes"/>
      <point x="173" y="254"/>
      <point x="143" y="194"/>
      <point x="130" y="134" type="curve" smooth="yes"/>
      <point x="112" y="50" type="line" smooth="yes"/>
      <point x="106" y="22"/>
      <point x="85" y="0"/>
      <point x="55" y="0" type="curve" smooth="yes"/>
      <point x="31.9341" y="0"/>
      <point x="15.1644" y="17.3148"/>
      <point x="15.1644" y="37.9801" type="curve" smooth="yes"/>
      <point x="15.1644" y="40.6088"/>
      <point x="15.4358" y="43.2916"/>
      <point x="16" y="46" type="curve" smooth="yes"/>
      <point x="103" y="452" type="line"/>
      <point x="108" y="479"/>
      <point x="137" y="500"/>
      <point x="163" y="500" type="curve" smooth="yes"/>
      <point x="184.915" y="500"/>
      <point x="199.914" y="483.863"/>
      <point x="199.914" y="461.693" type="curve" smooth="yes"/>
      <point x="199.914" y="458.572"/>
      <point x="199.617" y="455.332"/>
    </contour>
    <contour>
      <point x="505" y="691" type="curve"/>
      <point x="513" y="706"/>
      <point x="526" y="713"/>
      <point x="541" y="713" type="curve" smooth="yes"/>
      <point x="557.815" y="713"/>
      <point x="573.846" y="705.168"/>
      <point x="573.846" y="687.425" type="curve" smooth="yes"/>
      <point x="573.846" y="685.119"/>
      <point x="573.575" y="682.646"/>
      <point x="573" y="680" type="curve" smooth="yes"/>
      <point x="572" y="676"/>
      <point x="571" y="669"/>
      <point x="565" y="658" type="curve" smooth="yes"/>
      <point x="549" y="627"/>
      <point x="492" y="525"/>
      <point x="391" y="525" type="curve" smooth="yes"/>
      <point x="359" y="525"/>
      <point x="336" y="542"/>
      <point x="320" y="573" type="curve" smooth="yes"/>
      <point x="309" y="596"/>
      <point x="301" y="608"/>
      <point x="286" y="608" type="curve" smooth="yes"/>
      <point x="251" y="608"/>
      <point x="223" y="556"/>
      <point x="214" y="540" type="curve" smooth="yes"/>
      <point x="206" y="525"/>
      <point x="196" y="518"/>
      <point x="181" y="518" type="curve" smooth="yes"/>
      <point x="164.185" y="518"/>
      <point x="148.154" y="525.832"/>
      <point x="148.154" y="543.575" type="curve" smooth="yes"/>
      <point x="148.154" y="545.881"/>
      <point x="148.425" y="548.354"/>
      <point x="149" y="551" type="curve"/>
      <point x="149" y="555"/>
      <point x="151" y="562"/>
      <point x="156" y="573" type="curve" smooth="yes"/>
      <point x="185" y="630"/>
      <point x="239" y="697"/>
      <point x="317" y="697" type="curve" smooth="yes"/>
      <point x="356" y="697"/>
      <point x="378" y="680"/>
      <point x="393" y="649" type="curve"/>
      <point x="405" y="627"/>
      <point x="413" y="613"/>
      <point x="428" y="613" type="curve" smooth="yes"/>
      <point x="449" y="613"/>
      <point x="480" y="637"/>
    </contour>
  </outline>
  <lib>
    <dict>
      <key>com.fontlab.hintData</key>
      <dict>
        <key>hhints</key>
        <array>
          <dict>
            <key>position</key>
            <integer>404</integer>
            <key>width</key>
            <integer>96</integer>
          </dict>
          <dict>
            <key>position</key>
            <integer>525</integer>
            <key>width</key>
            <integer>88</integer>
          </dict>
          <dict>
            <key>position</key>
            <integer>608</integer>
            <key>width</key>
            <integer>89</integer>
          </dict>
        </array>
        <key>vhints</key>
        <array>
          <dict>
            <key>position</key>
            <integer>387</integer>
            <key>width</key>
            <integer>99</integer>
          </dict>
          <dict>
            <key>position</key>
            <integer>505</integer>
            <key>width</key>
            <integer>69</integer>
          </dict>
        </array>
      </dict>
    </dict>
  </lib>
</glyph>
